<?xml version="1.0" encoding="UTF-8"?>
<svg width="20px" height="20px" viewBox="0 0 20 20" version="1.1" xmlns="http://www.w3.org/2000/svg" xmlns:xlink="http://www.w3.org/1999/xlink">
    <!-- Generator: Sketch 54.1 (76490) - https://sketchapp.com -->
    <title>Group 18</title>
    <desc>Created with Sketch.</desc>
    <g id="Food" stroke="none" stroke-width="1" fill="none" fill-rule="evenodd">
        <g id="My-Profile-Desktop" transform="translate(-380.000000, -642.000000)">
            <g id="Group-18" transform="translate(380.000000, 642.000000)">
                <rect id="Rectangle-Copy-2" stroke="#AAAAAA" fill="#FFFFFF" x="0.5" y="0.5" width="19" height="19" rx="4"></rect>
                <path d="M13.6557031,7.34427344 C12.6980469,6.38661719 11.4247344,5.85920312 10.0703984,5.85920312 L9.32703125,5.85920312 L10.5201641,4.66314062 L9.85538281,4 L7.53164844,6.32942969 L9.82505469,8.66117969 L10.4945,8.00275 L9.30971094,6.79815625 L10.0703984,6.79815625 C12.3484766,6.79815625 14.2018437,8.6515 14.2018437,10.9296016 C14.2018437,13.2077031 12.3484766,15.0610469 10.0703984,15.0610469 C7.79232031,15.0610469 5.93895312,13.2076797 5.93895312,10.9295078 L5.93895312,10.4600313 L5,10.460125 L5,10.9296016 C5,12.2839609 5.52741406,13.55725 6.48509375,14.5149063 C7.44275,15.4725859 8.7160625,16 10.0703984,16 C11.4247344,16 12.6980469,15.4725859 13.6557031,14.5149063 C14.6133828,13.5572266 15.1407969,12.2839375 15.1407969,10.9296016 C15.1407969,9.57526563 14.6133828,8.30195313 13.6557031,7.34427344 Z" id="Path" fill="#AAAAAA" fill-rule="nonzero"></path>
            </g>
        </g>
    </g>
</svg>